…
``` r
exam
```

    ## # A tibble: 442 × 21
    ##    application_number filing_date examiner_name_last examiner_name_first
    ##    <chr>              <date>      <chr>              <chr>              
    ##  1 09000004           2001-05-02  SAUNDERS           DAVID              
    ##  2 09463470           2000-01-21  SAUNDERS           DAVID              
    ##  3 09483588           2000-01-14  SAUNDERS           DAVID              
    ##  4 09486311           2000-02-25  SAUNDERS           DAVID              
    ##  5 09490520           2000-01-25  SAUNDERS           DAVID              
    ##  6 09492191           2000-01-27  SAUNDERS           DAVID              
    ##  7 09500135           2000-02-08  SAUNDERS           DAVID              
    ##  8 09509734           2000-06-14  SAUNDERS           DAVID              
    ##  9 09513145           2000-02-25  SAUNDERS           DAVID              
    ## 10 09521700           2000-03-09  SAUNDERS           DAVID              
    ## # … with 432 more rows, and 17 more variables: examiner_name_middle <chr>,
    ## #   examiner_id <dbl>, examiner_art_unit <dbl>, uspc_class <chr>,
    ## #   uspc_subclass <chr>, patent_number <chr>, patent_issue_date <date>,
    ## #   abandon_date <date>, disposal_type <chr>, appl_status_code <dbl>,
    ## #   appl_status_date <chr>, tc <dbl>, gender <chr>, race <chr>,
    ## #   earliest_date <date>, latest_date <date>, tenure_days <dbl>
